module gitlab.com/gitlab-org/ci-cd/package-stage/pkgs_importer

go 1.18

require (
	github.com/go-playground/validator/v10 v10.11.1
	github.com/spf13/cobra v1.6.1
	github.com/spf13/viper v1.14.0
	github.com/stretchr/testify v1.8.1
	gopkg.in/yaml.v3 v3.0.1
)

replace github.com/spf13/viper => gitlab.com/gitlab-org/ci-cd/package-stage/libs/golang/viper-fork v0.0.0-20230511141318-09c40f7e2cec

require (
	github.com/davecgh/go-spew v1.1.1 // indirect
	github.com/fsnotify/fsnotify v1.6.0 // indirect
	github.com/go-playground/locales v0.14.0 // indirect
	github.com/go-playground/universal-translator v0.18.0 // indirect
	github.com/hashicorp/hcl v1.0.0 // indirect
	github.com/inconshreveable/mousetrap v1.0.1 // indirect
	github.com/leodido/go-urn v1.2.1 // indirect
	github.com/magiconair/properties v1.8.6 // indirect
	github.com/mitchellh/mapstructure v1.5.0 // indirect
	github.com/pelletier/go-toml v1.9.5 // indirect
	github.com/pelletier/go-toml/v2 v2.0.5 // indirect
	github.com/pmezard/go-difflib v1.0.0 // indirect
	github.com/spf13/afero v1.9.2 // indirect
	github.com/spf13/cast v1.5.0 // indirect
	github.com/spf13/jwalterweatherman v1.1.0 // indirect
	github.com/spf13/pflag v1.0.5 // indirect
	github.com/subosito/gotenv v1.4.1 // indirect
	golang.org/x/crypto v0.0.0-20220525230936-793ad666bf5e // indirect
	golang.org/x/sys v0.0.0-20220908164124-27713097b956 // indirect
	golang.org/x/text v0.4.0 // indirect
	gopkg.in/ini.v1 v1.67.0 // indirect
	gopkg.in/yaml.v2 v2.4.0 // indirect
)
